<?xml version="1.0" encoding="utf-8"?>
<!-- Generator: Adobe Illustrator 19.2.1, SVG Export Plug-In . SVG Version: 6.00 Build 0)  -->
<svg version="1.1" id="Layer_1" xmlns="http://www.w3.org/2000/svg" xmlns:xlink="http://www.w3.org/1999/xlink" x="0px" y="0px"
	 viewBox="0 0 100 100" style="enable-background:new 0 0 100 100;" xml:space="preserve">
<style type="text/css">
	.st0{fill:#272727;}
</style>
<path id="Forma_1" class="st0" d="M100,50c0-27.6-22.4-50-50-50S0,22.4,0,50s22.4,50,50,50c0,0,0,0,0,0C77.6,100,100,77.6,100,50z
	 M4.6,50C4.6,24.9,24.9,4.6,50,4.6S95.4,24.9,95.4,50c0,25.1-20.3,45.4-45.4,45.4C24.9,95.4,4.6,75.1,4.6,50C4.6,50,4.6,50,4.6,50
	L4.6,50z M64.2,21.1H37.5c-9.1,0-16.5,7.4-16.5,16.5v26.7c0,9.1,7.4,16.5,16.5,16.5h26.7c9.1,0,16.4-7.4,16.5-16.5V37.5
	C80.7,28.4,73.3,21.1,64.2,21.1z M75.4,64.2c0,6.2-5,11.2-11.2,11.2H37.5c-6.2,0-11.2-5-11.2-11.2V37.5c0-6.2,5-11.2,11.2-11.2h26.7
	c6.2,0,11.2,5,11.2,11.2L75.4,64.2L75.4,64.2L75.4,64.2z M50.9,35.5c-8.5,0-15.4,6.9-15.4,15.4s6.9,15.4,15.4,15.4
	s15.4-6.9,15.4-15.4C66.2,42.4,59.4,35.5,50.9,35.5z M50.9,60.9c-5.6,0-10.1-4.5-10.1-10.1c0-5.6,4.5-10.1,10.1-10.1
	S61,45.3,61,50.9c0,0,0,0,0,0C60.9,56.4,56.4,60.9,50.9,60.9L50.9,60.9z M66.9,31c-2.1,0-3.9,1.7-3.9,3.9c0,2.1,1.7,3.9,3.9,3.9
	c2.1,0,3.9-1.7,3.9-3.9c0-1-0.4-2-1.1-2.7C68.9,31.4,67.9,31,66.9,31L66.9,31z"/>
</svg>
