<?xml version="1.0" encoding="utf-8"?>
<!-- Generator: Adobe Illustrator 19.2.1, SVG Export Plug-In . SVG Version: 6.00 Build 0)  -->
<svg version="1.1" id="Layer_1" xmlns="http://www.w3.org/2000/svg" xmlns:xlink="http://www.w3.org/1999/xlink" x="0px" y="0px"
	 viewBox="0 0 100 100" style="enable-background:new 0 0 100 100;" xml:space="preserve">
<style type="text/css">
	.st0{fill:#272727;}
</style>
<path id="Forma_1" class="st0" d="M100,50c0-27.6-22.4-50-50-50S0,22.4,0,50s22.4,50,50,50c0,0,0,0,0,0C77.6,100,100,77.6,100,50z
	 M4.6,50C4.6,24.9,24.9,4.6,50,4.6S95.4,24.9,95.4,50c0,25.1-20.3,45.4-45.4,45.4C24.9,95.4,4.6,75.1,4.6,50C4.6,50,4.6,50,4.6,50
	L4.6,50z M51.9,78.9V50h9.5l1.5-9.6h-11v-4.8c0-2.5,0.8-4.9,4.4-4.9h7.2v-9.5H53.3c-8.5,0-10.9,5.6-10.9,13.4v5.8h-5.9V50h5.9v28.9
	L51.9,78.9L51.9,78.9z"/>
</svg>
