<?xml version="1.0" encoding="utf-8"?>
<!-- Generator: Adobe Illustrator 19.2.1, SVG Export Plug-In . SVG Version: 6.00 Build 0)  -->
<svg version="1.1" id="Layer_1" xmlns="http://www.w3.org/2000/svg" xmlns:xlink="http://www.w3.org/1999/xlink" x="0px" y="0px"
	 viewBox="0 0 100 100" style="enable-background:new 0 0 100 100;" xml:space="preserve">
<style type="text/css">
	.st0{fill:#272727;}
</style>
<path id="Forma_1" class="st0" d="M71.4,40.1c0-0.5,0-1,0-1.5c2.2-1.6,4-3.6,5.5-5.9c-2,0.9-4.2,1.5-6.3,1.7
	c2.3-1.5,4.1-3.7,4.9-6.3c-2.2,1.3-4.5,2.2-7,2.7c-2-2.4-5-3.7-8.1-3.8C54.2,27,49.2,32,49.3,38.2c0,0.1,0,0.2,0,0.3
	c0,0.9,0.1,1.8,0.3,2.7c-9.1-0.7-17.4-5.3-22.8-12.6c-2.9,5.4-1.5,12.1,3.4,15.8c-1.8-0.1-3.5-0.6-5-1.5v0.1
	c-0.1,5.5,3.6,10.3,8.9,11.6c-0.9,0.3-1.9,0.4-2.9,0.4c-0.7,0-1.4-0.1-2.1-0.2c1.3,4.7,5.5,8,10.3,8.2c-4.5,3.8-10.5,5.6-16.4,4.8
	c5,3.4,10.9,5.3,16.9,5.3C60.3,73.1,71.4,55.4,71.4,40.1z M100,50c0-27.6-22.4-50-50-50S0,22.4,0,50s22.4,50,50,50c0,0,0,0,0,0
	C77.6,100,100,77.6,100,50z M4.6,50C4.6,24.9,24.9,4.6,50,4.6S95.4,24.9,95.4,50c0,25.1-20.3,45.4-45.4,45.4
	C24.9,95.4,4.6,75.1,4.6,50C4.6,50,4.6,50,4.6,50L4.6,50z"/>
</svg>
